{
  "packages": [
    "packages/*"
  ],
  "version": "0.20.0",
  "command": {
    "version": {
      "createRelease": "gitlab",
      "conventionalCommits": true,
      "allowBranch": [
        "main"
      ],
      "message": "chore(release): publish %s"
    }
  }
}
